// Jest Snapshot v1, https://goo.gl/fbAQLP

exports[`Comment tokenization performs as specified 1`] = `
{
  "_line": 0,
  "_meta": [
    {
      "_comment": "value",
      "_line": 0,
      "_ranges": {
        "comment": [
          2,
          7,
        ],
        "commentOperator": [
          0,
          1,
        ],
        "line": [
          0,
          7,
        ],
      },
    },
    {
      "_comment": "more value",
      "_line": 1,
      "_ranges": {
        "comment": [
          10,
          20,
        ],
        "commentOperator": [
          8,
          9,
        ],
        "line": [
          8,
          22,
        ],
      },
    },
    {
      "_comment": "value",
      "_line": 2,
      "_ranges": {
        "comment": [
          32,
          37,
        ],
        "commentOperator": [
          27,
          28,
        ],
        "line": [
          23,
          37,
        ],
      },
    },
    {
      "_comment": null,
      "_line": 3,
      "_ranges": {
        "commentOperator": [
          42,
          43,
        ],
        "line": [
          38,
          47,
        ],
      },
    },
  ],
  "_ranges": {
    "line": [
      0,
      0,
    ],
  },
  "type": "document",
}
`;
