// Jest Snapshot v1, https://goo.gl/fbAQLP

exports[`Property issues Section toString as attribute key does not have any side effects 1`] = `
{
  "elements": [
    {
      "attributes": [
        {
          "key": "toString",
          "value": "value",
        },
      ],
      "key": "check",
      "type": "field",
    },
  ],
  "type": "document",
}
`;

exports[`Property issues Section toString as field key does not have any side effects 1`] = `
{
  "elements": [
    {
      "key": "toString",
      "type": "field",
      "value": "value",
    },
  ],
  "type": "document",
}
`;

exports[`Property issues Section toString as flag key does not have any side effects 1`] = `
{
  "elements": [
    {
      "key": "toString",
      "type": "flag",
    },
  ],
  "type": "document",
}
`;
